<?xml version="1.0" encoding="UTF-8"?>
<svg width="16px" height="16px" viewBox="0 0 16 16" version="1.1" xmlns="http://www.w3.org/2000/svg" xmlns:xlink="http://www.w3.org/1999/xlink">
    <!-- Generator: Sketch 60 (88103) - https://sketch.com -->
    <title>电话</title>
    <desc>Created with Sketch.</desc>
    <g id="页面-1" stroke="none" stroke-width="1" fill="none" fill-rule="evenodd">
        <g id="关于我们-联系我们" transform="translate(-1131.000000, -782.000000)" fill="#8086AC" fill-rule="nonzero">
            <g id="总部" transform="translate(1091.000000, 690.000000)">
                <g id="编组" transform="translate(32.000000, 26.000000)">
                    <g id="dianhua" transform="translate(8.000000, 66.000000)">
                        <path d="M10.1736448,11.1112883 L10.6168048,10.836081 C10.7905612,10.7311224 10.9328284,10.6529815 11.0762755,10.5888552 C12.0791932,10.1317124 12.9654815,10.4547353 14.1363361,11.8238361 C14.8605389,12.6704879 15.0751116,13.4215083 14.7952328,14.090896 C14.5876435,14.591183 14.1864796,14.936368 13.471604,15.3620217 C13.4249681,15.3900191 13.0132972,15.6302455 12.9083386,15.6943878 C11.2453763,16.7206314 7.43313138,14.3719388 4.69143814,10.3579401 C1.94274554,6.33345026 1.23137755,2.0419324 2.91650191,1.0005102 L3.13808992,0.860570791 L3.38064413,0.703140944 C4.23198342,0.151530612 4.77774235,-0.068877551 5.42496811,0.0407366071 C6.07101403,0.151530612 6.62029656,0.629671556 7.08327487,1.49963329 C8.06286671,3.34103954 7.84711416,4.21450893 6.58647959,5.00750957 C6.49551977,5.06581633 6.17364477,5.26057079 6.14333546,5.27922513 C5.83545918,5.47048788 6.35790816,6.75212054 7.57423469,8.53287628 C8.80688776,10.3334503 9.83662309,11.3188776 10.1736448,11.1089605 L10.1736448,11.1112883 Z" id="路径"></path>
                    </g>
                </g>
            </g>
        </g>
    </g>
</svg>