<?xml version="1.0" encoding="UTF-8"?>
<svg width="24px" height="24px" viewBox="0 0 24 24" version="1.1" xmlns="http://www.w3.org/2000/svg" xmlns:xlink="http://www.w3.org/1999/xlink">
    <!-- Generator: Sketch 60.1 (88133) - https://sketch.com -->
    <title>院校</title>
    <desc>Created with Sketch.</desc>
    <g id="主页2" stroke="none" stroke-width="1" fill="none" fill-rule="evenodd">
        <g id="关于我们" transform="translate(-506.000000, -997.000000)">
            <g id="Group-8-Copy" transform="translate(360.000000, 964.000000)">
                <g id="Group-9" transform="translate(146.000000, 33.000000)">
                    <rect id="Rectangle" x="0" y="0" width="24" height="24"></rect>
                    <g id="Group-10" transform="translate(0.000000, 2.000000)">
                        <path d="M5,5 L19,5 L19,15.4872679 C19,16.3821784 18.4055055,17.1681662 17.5443842,17.4117537 L14.6791998,18.2222357 C12.8821468,18.7305726 10.9786521,18.725521 9.18432256,18.2076529 L6.44540876,17.4171648 C5.58937343,17.1701013 5,16.3865707 5,15.4955955 L5,5 L5,5 Z" id="Rectangle" fill="#EBF2FE"></path>
                        <path d="M1.9858999,6.57993754 L11.4147126,11.1074712 C11.6972761,11.2431527 12.0258652,11.2446249 12.3096331,11.1114807 L21.9895513,6.56965169 C22.5112742,6.3248587 22.7357702,5.7034748 22.4909772,5.18175191 C22.3876628,4.96155969 22.2106744,4.78437527 21.9905966,4.68081716 L12.4857943,0.20830938 C12.2053165,0.076329885 11.8806797,0.075881682 11.5998385,0.207086204 L1.99591,4.69388929 C1.47378284,4.93781882 1.24825911,5.55883046 1.49218863,6.08095762 C1.59419835,6.29930775 1.76864486,6.47561587 1.9858999,6.57993754 Z" id="Path-5" fill="#3D81FA"></path>
                        <rect id="Rectangle" fill="#3D81FA" x="21" y="5" width="1" height="7"></rect>
                        <circle id="Oval" fill="#3D81FA" cx="21.5" cy="12" r="1"></circle>
                    </g>
                </g>
            </g>
        </g>
    </g>
</svg>